.......
----------------------------------------------------------------------
Ran 7 tests in 0.034s

OK
Name             Stmts   Miss Branch BrPart  Cover   Missing
------------------------------------------------------------
Collatz.py          55      9     30      2    82%   51-58, 138, 48->51, 137->138
TestCollatz.py      48      0      0      0   100%
------------------------------------------------------------
TOTAL              103      9     30      2    89%
