1 10 20
100 200 125
201 210 89
900 1000 174
1 1 1
999999 999999 259
14 14 18
572039 858612 525
736212 273801 509
916455 669492 525
259915 125562 443
221928 421946 449
566972 272957 470
283251 545444 470
506489 769191 509
662610 241409 509
799476 657022 504
465361 384868 449
176523 424856 449
409489 395174 405
972426 972656 277
560474 140380 470
825841 261135 509
670628 480056 509
2617 245072 443
24972 239199 443
750110 802925 468
80637 930032 525
891396 918021 476
456387 94993 449
960872 53727 525
567459 802266 509
392598 30767 443
710303 661497 504
741639 468544 509
973140 368922 525
109454 81046 354
291678 759892 509
541645 327306 470
782861 822264 468
313685 35225 443
326976 791953 509
350742 238382 441
287273 987064 525
831776 761073 468
275668 926775 525
611359 581220 434
532809 604423 452
603157 425802 470
766144 914420 525
658013 924456 525
850659 953286 507
839433 929865 476
306555 855880 525
609137 408368 470
877683 461864 525
131899 402770 443
760736 780498 468
51081 198566 383
668974 432685 509
324472 237059 407
886671 584387 525
645564 859241 525
349488 430051 449
725268 531458 509
214060 183802 373
478673 289181 449
270474 877064 525
394879 995041 525
467122 376138 449
36150 557273 470
187936 635166 509
900218 948406 507
859261 512500 525
832492 23082 509
720423 286421 509
151287 271723 443
116846 944327 525
623997 490092 470
137867 407183 443
648538 533363 509
241932 372508 441
834266 515034 509
53741 82657 351
461075 243656 449
246043 128899 443
574407 662764 509
102942 124941 354
909142 17784 525
547545 436171 470
41377 774578 509
435173 122517 449
749348 377522 509
323939 488375 449
567923 112418 470
249135 244505 350
683670 962772 525
549828 734087 509
585785 870283 525
119979 200791 383
835234 604688 509
46647 866817 525
246847 794666 509
25379 73182 340
55026 989825 525
496483 332915 449
973455 104283 525
630233 443557 509
974422 355920 525
141703 362533 443
847163 520111 525
874879 792635 525
626652 974914 525
595047 514689 452
501059 318197 449
760175 147831 509
865639 91754 525
971272 996311 427
681251 149164 509
771682 704339 504
999246 62438 525
259998 530320 470
228300 661204 509
778871 64692 509
308291 860408 525
423479 760202 509
695276 995688 525
349310 235193 441
557692 488946 470
656117 469624 509
856072 388948 525
383731 491152 449
438612 86585 449
366875 458719 449
190585 279012 443
130335 768010 509
596850 531725 452
427265 563565 470
687176 889591 525
168458 413919 449
876291 904693 445
609139 390589 470
642005 480966 509
684354 855159 525
250730 812060 509
261593 178728 443
93149 12280 351
205206 833027 509
116605 183259 383
161392 866258 525
637480 323232 509
106147 250633 443
522731 622834 452
888837 958208 507
537445 870130 525
270179 394115 441
323459 76981 443
284725 870576 525
566273 133448 470
197068 524841 470
884530 591225 525
67343 402179 443
914647 289356 525
597969 289866 470
427426 251826 449
861885 299503 525
226406 538055 470
695792 853924 525
714926 604293 509
974731 158228 525
413053 135268 449
174439 741064 509
701116 279150 509
756132 762349 380
125861 437376 449
776250 648584 504
877816 428740 525
465149 578132 470
386658 165265 443
11775 965773 525
